\select@language {german}
\contentsline {section}{\numberline {1}Erstes Programm}{3}{section.1}
\contentsline {subsection}{\numberline {1.1}Vorbereitung}{3}{subsection.1.1}
\contentsline {subsection}{\numberline {1.2}Programm Schreiben}{3}{subsection.1.2}
\contentsline {subsection}{\numberline {1.3}Kompilieren}{4}{subsection.1.3}
\contentsline {section}{\numberline {2}Variabeln und Rechnen}{4}{section.2}
\contentsline {subsection}{\numberline {2.1}Variabeln}{4}{subsection.2.1}
\contentsline {subsubsection}{\numberline {2.1.1}Datentypen}{4}{subsubsection.2.1.1}
\contentsline {subsubsection}{\numberline {2.1.2}Deklaration und Affektation}{5}{subsubsection.2.1.2}
\contentsline {subsection}{\numberline {2.2}Rechenoperationen}{5}{subsection.2.2}
\contentsline {subsubsection}{\numberline {2.2.1}Standard-Operationen: +,-,*,/}{5}{subsubsection.2.2.1}
\contentsline {subsubsection}{\numberline {2.2.2}Komplexere Rechnungen}{6}{subsubsection.2.2.2}
\contentsline {section}{\numberline {3}Steuerung}{6}{section.3}
\contentsline {subsection}{\numberline {3.1}Bedingungen}{6}{subsection.3.1}
\contentsline {subsubsection}{\numberline {3.1.1}Vergleiche}{7}{subsubsection.3.1.1}
\contentsline {subsubsection}{\numberline {3.1.2}Bedingungen Verbinden}{7}{subsubsection.3.1.2}
\contentsline {subsection}{\numberline {3.2}If-anweisung}{7}{subsection.3.2}
\contentsline {subsection}{\numberline {3.3}Schleifen}{8}{subsection.3.3}
\contentsline {subsubsection}{\numberline {3.3.1}While}{8}{subsubsection.3.3.1}
\contentsline {subsubsection}{\numberline {3.3.2}Do-While}{8}{subsubsection.3.3.2}
\contentsline {subsubsection}{\numberline {3.3.3}For}{8}{subsubsection.3.3.3}
\contentsline {section}{\numberline {4}Funktionen}{9}{section.4}
\contentsline {subsection}{\numberline {4.1}Kopf}{9}{subsection.4.1}
\contentsline {subsection}{\numberline {4.2}K\IeC {\"o}rper}{9}{subsection.4.2}
\contentsline {section}{\numberline {5}Ein bischen \IeC {\"U}ben}{9}{section.5}
\contentsline {subsection}{\numberline {5.1}Quadratische Gleichung}{9}{subsection.5.1}
\contentsline {subsubsection}{\numberline {5.1.1}Eine Gleichung l\IeC {\"o}sen lassen}{10}{subsubsection.5.1.1}
\contentsline {subsubsection}{\numberline {5.1.2}Viele Gleichungen l\IeC {\"o}sen lassen}{10}{subsubsection.5.1.2}
\contentsline {section}{\numberline {6}Pointer, ein (Alb-)Traum}{10}{section.6}
\contentsline {subsection}{\numberline {6.1}Deklaration und Syntax}{10}{subsection.6.1}
\contentsline {subsection}{\numberline {6.2}Warum brauche ich sowas?}{11}{subsection.6.2}
\contentsline {subsubsection}{\numberline {6.2.1}Mehrfache R\IeC {\"u}ckgabe}{11}{subsubsection.6.2.1}
\contentsline {subsubsection}{\numberline {6.2.2}Eingabe Abfragen}{11}{subsubsection.6.2.2}
\contentsline {subsection}{\numberline {6.3}Arrays}{12}{subsection.6.3}
\contentsline {subsubsection}{\numberline {6.3.1}Wie sieht ein Array aus?}{12}{subsubsection.6.3.1}
\contentsline {section}{\numberline {7}Ein wenig \IeC {\"U}bung, diesmal macht es Spa\IeC {\ss }}{13}{section.7}
\contentsline {subsection}{\numberline {7.1}Spielfeld}{13}{subsection.7.1}
\contentsline {subsubsection}{\numberline {7.1.1}Das Array bauen}{13}{subsubsection.7.1.1}
\contentsline {subsubsection}{\numberline {7.1.2}Das Spielfeld ausgeben}{14}{subsubsection.7.1.2}
\contentsline {subsection}{\numberline {7.2}Eingabe der Benutzer}{14}{subsection.7.2}
\contentsline {subsection}{\numberline {7.3}Schleife im main}{15}{subsection.7.3}
\contentsline {section}{\numberline {8}Typedef, Struct, Enum ...}{15}{section.8}
\contentsline {subsection}{\numberline {8.1}Typedef}{15}{subsection.8.1}
\contentsline {subsection}{\numberline {8.2}Struct}{16}{subsection.8.2}
\contentsline {subsection}{\numberline {8.3}Enum}{16}{subsection.8.3}
\contentsline {subsection}{\numberline {8.4}Union}{17}{subsection.8.4}
\contentsline {section}{\numberline {9}Kompiler, oder wie geht das alles \IeC {\"u}berhaupt?}{17}{section.9}
\contentsline {subsection}{\numberline {9.1}Pr\IeC {\"a}prozessor}{17}{subsection.9.1}
\contentsline {subsection}{\numberline {9.2}Kompiler}{18}{subsection.9.2}
\contentsline {subsection}{\numberline {9.3}Assembler}{18}{subsection.9.3}
\contentsline {subsection}{\numberline {9.4}Linker}{18}{subsection.9.4}
\contentsline {section}{\numberline {10}Dateien}{19}{section.10}
\contentsline {subsection}{\numberline {10.1}\IeC {\"O}ffnen}{19}{subsection.10.1}
\contentsline {subsection}{\numberline {10.2}Lesen}{19}{subsection.10.2}
\contentsline {subsubsection}{\numberline {10.2.1}Bin\IeC {\"a}rdateien}{19}{subsubsection.10.2.1}
\contentsline {subsubsection}{\numberline {10.2.2}Textdateien}{20}{subsubsection.10.2.2}
\contentsline {subsection}{\numberline {10.3}Schreiben}{20}{subsection.10.3}
\contentsline {subsubsection}{\numberline {10.3.1}Bin\IeC {\"a}rdateien}{20}{subsubsection.10.3.1}
\contentsline {subsubsection}{\numberline {10.3.2}Textdateien}{21}{subsubsection.10.3.2}
\contentsline {subsection}{\numberline {10.4}Schlie\IeC {\ss }en}{21}{subsection.10.4}
\contentsline {section}{\numberline {11}Die Geheime Botschaft aus der Vergangenheit}{21}{section.11}
\contentsline {subsection}{\numberline {11.1}Caesar-Chiffre}{21}{subsection.11.1}
\contentsline {subsection}{\numberline {11.2}ASCII}{21}{subsection.11.2}
\contentsline {subsection}{\numberline {11.3}Was soll unser Computer machen?}{22}{subsection.11.3}
\contentsline {section}{\numberline {A}N\IeC {\"u}tzliche Informationen}{22}{appendix.A}
\contentsline {subsection}{\numberline {A.1}Datentypen}{22}{subsection.A.1}
\contentsline {section}{\numberline {B}Hilfe f\IeC {\"u}r Aufgaben}{22}{appendix.B}
\contentsline {subsection}{\numberline {B.1}Tic-Tac-Toe}{22}{subsection.B.1}
\contentsline {subsubsection}{\numberline {B.1.1}Spielfeld}{22}{subsubsection.B.1.1}
\contentsline {paragraph}{Ausgabe}{22}{section*.2}
\contentsline {paragraph}{Einlesen des n\IeC {\"a}chsten Feldes}{23}{section*.3}
\contentsline {paragraph}{Z\IeC {\"a}hlen der L\IeC {\"o}cher}{23}{section*.4}
